Telephone number,ISO Date
420737148942,1991-09-09T06:33:00.000+02:00
420590245700,1988-07-29T09:50:30.000+02:00
420312681711,1976-12-30T09:04:16.000+01:00
420204246719,1994-09-13T03:56:59.000+02:00
420546372510,1995-03-23T03:32:07.000+01:00
420543137872,1988-08-08T01:12:00.000+02:00
420397183899,1999-01-05T06:54:00.000+01:00
420273339699,1986-07-10T00:48:00.000+02:00
420956508492,1970-04-13T02:27:00.000+01:00
420201370963,1994-08-23T11:54:00.000+02:00
420536643863,1995-07-20T08:27:46.000+02:00
420474151243,1975-12-07T06:17:22.000+01:00
420492366940,1979-01-24T02:48:00.000+01:00
420238656758,1975-02-11T06:28:00.000+01:00
420370347251,1988-09-21T06:24:18.000+02:00
420207860154,1995-11-27T00:22:20.000+01:00
420558693948,1976-09-05T04:51:01.000+01:00
420357409738,1991-10-27T11:22:00.000+01:00
420967654426,1982-07-05T02:06:57.000+02:00
420588370754,1995-09-05T09:42:00.000+02:00
420774273647,1995-06-23T11:27:28.000+02:00
420496380959,1982-11-22T03:30:00.000+01:00
420246653306,1970-10-10T00:13:41.000+01:00
420724248832,1984-06-23T11:42:37.000+02:00
420533957522,1998-12-07T02:05:01.000+01:00
420477953696,1985-04-14T08:15:47.000+02:00
420735127337,1993-02-07T10:56:00.000+01:00
420288919313,1971-03-11T09:29:10.000+01:00
420264898373,1985-11-29T00:36:09.000+01:00
420251769565,1992-11-18T07:24:35.000+01:00
420357563909,1981-11-14T08:11:04.000+01:00
420417674943,1970-05-18T10:15:00.000+01:00
420791398539,1993-08-27T00:56:00.000+02:00
420239648523,1999-04-30T01:22:00.000+02:00
420558375854,1981-05-10T04:00:00.000+02:00
420842757461,1993-01-01T00:53:14.000+01:00
420842678598,1997-08-26T00:28:00.000+02:00
420373245355,1971-11-29T03:06:00.000+01:00
420245777738,1998-10-26T06:14:00.000+01:00
420598942153,1973-11-16T08:45:00.000+01:00
420905827126,1981-06-09T05:14:00.000+02:00
420295120686,1970-11-22T04:23:00.000+01:00
420254854442,1993-09-13T11:50:00.000+02:00
420591941472,1973-03-08T05:00:00.000+01:00
420252516268,1989-12-19T09:48:38.000+01:00
420813370775,1996-03-26T09:37:49.000+01:00
420490675915,1972-06-29T11:38:00.000+01:00
420564979838,1992-01-31T05:05:57.000+01:00
420703783153,1976-05-18T08:43:00.000+01:00
420962194429,1974-07-16T00:59:00.000+01:00
420382992972,1975-10-18T01:04:00.000+01:00
420729986330,1980-05-09T04:53:09.000+02:00
420259268374,1989-06-15T02:13:44.000+02:00
420797380867,1985-02-19T05:58:59.000+01:00
420311477987,1988-04-19T03:49:00.000+02:00
420269230564,1984-01-15T01:39:00.000+01:00
420278139823,1996-03-31T00:36:09.000+01:00
420391748595,1978-03-01T00:59:00.000+01:00
420388940635,1999-12-06T09:26:00.000+01:00
420726412906,1979-11-18T07:28:26.000+01:00
420394823748,1986-09-19T10:45:15.000+02:00
420592189827,1996-12-05T04:23:00.000+01:00
420730647946,1990-10-04T05:55:21.000+01:00
420605185403,1990-03-30T02:09:00.000+02:00
420249122104,1986-12-03T08:20:50.000+01:00
420474246606,1992-12-22T09:09:00.000+01:00
420227987680,1978-09-29T00:02:06.000+01:00
420951916685,1988-01-10T04:50:39.000+01:00
420466249620,1973-03-14T00:20:00.000+01:00
420560371376,1972-06-25T09:28:00.000+01:00
420311429243,1996-01-12T06:14:00.000+01:00
420378512745,1975-11-12T10:50:32.000+01:00
420200627275,1980-12-10T09:44:00.000+01:00
420955626511,1996-02-12T02:57:48.000+01:00
420598378225,1970-07-03T07:52:30.000+01:00
420798171733,1980-06-22T07:25:20.000+02:00
420384377680,1996-09-22T10:49:54.000+02:00
420393155755,1979-12-24T04:58:00.000+01:00
420310403782,1976-09-09T09:22:00.000+01:00
420961831177,1984-10-16T02:11:00.000+01:00
420514410485,1988-03-25T02:00:28.000+01:00
420538880396,1976-10-24T05:27:18.000+01:00
420258700546,1996-12-30T02:39:00.000+01:00
420354550139,1996-02-24T05:28:38.000+01:00
420462260551,1973-10-01T01:59:00.000+01:00
420813695925,1986-02-08T07:05:57.000+01:00
420849607235,1990-06-30T11:29:00.000+02:00
420228135861,1992-12-18T01:20:00.000+01:00
420835739876,1973-11-09T10:40:00.000+01:00
420812301482,1971-02-07T01:13:00.000+01:00
420849996576,1997-07-29T10:11:28.000+02:00
420553537980,1999-10-26T01:17:01.000+02:00
420475103164,1991-08-17T00:16:00.000+02:00
420391844215,1975-10-10T04:29:12.000+01:00
420322813886,1996-07-04T05:30:00.000+02:00
420564876996,1999-03-21T03:30:00.000+01:00
420212699988,1985-10-09T02:42:00.000+01:00
420491373165,1994-11-08T00:05:00.000+01:00
420519293861,1983-07-22T03:10:32.000+02:00
420532616591,1986-08-05T05:06:16.000+02:00
420487979228,1994-01-12T11:46:40.000+01:00
420380446418,1986-10-31T04:31:00.000+01:00
420373620679,1998-02-04T00:04:54.000+01:00
420261820461,1970-01-05T02:52:00.000+01:00
420282887260,1998-12-23T00:54:23.000+01:00
420265279610,1973-04-18T10:10:39.000+01:00
420540962237,1989-02-12T01:14:17.000+01:00
420544793775,1993-10-15T09:02:00.000+01:00
420415441808,1971-09-07T05:57:56.000+01:00
420284555912,1970-11-09T02:10:00.000+01:00
420798426570,1971-06-17T07:16:50.000+01:00
420491773152,1987-11-22T10:48:48.000+01:00
420777794241,1993-01-17T10:16:24.000+01:00
420846730198,1986-08-12T06:31:21.000+02:00
420233152252,1976-11-20T08:58:05.000+01:00
420266560538,1985-04-24T06:22:00.000+02:00
420816813706,1997-12-29T11:53:33.000+01:00
420235922257,1971-03-09T05:56:00.000+01:00
420574696480,1987-05-29T08:55:00.000+02:00
420962693878,1974-02-05T02:06:29.000+01:00
420733528843,1972-05-24T00:40:00.000+01:00
420799939686,1974-06-01T01:52:00.000+01:00
420847177134,1970-11-18T09:00:00.000+01:00
420278226690,1971-05-29T03:53:00.000+01:00
420273514853,1982-04-12T00:52:00.000+02:00
420279742914,1987-06-13T03:50:00.000+02:00
420800520396,1977-10-19T09:24:00.000+01:00
420498356598,1986-04-30T04:01:00.000+02:00
420466555667,1976-01-21T02:36:00.000+01:00
420468185663,1994-01-21T07:41:14.000+01:00
420703529287,1997-09-11T08:19:12.000+02:00
420842684482,1970-09-29T08:29:20.000+01:00
420596676512,1997-08-09T03:46:56.000+02:00
420313464898,1984-06-04T08:23:38.000+02:00
420579506738,1973-10-09T01:17:56.000+01:00
420586698143,1981-11-16T08:36:15.000+01:00
420495698737,1978-02-26T06:44:00.000+01:00
420578241768,1998-06-30T05:30:45.000+02:00
420734598555,1978-02-21T06:09:58.000+01:00
420200512337,1973-01-29T04:33:13.000+01:00
420772437315,1992-11-26T06:12:14.000+01:00
420724859612,1977-12-13T02:53:23.000+01:00
420606410763,1988-02-10T05:21:00.000+01:00
420556970259,1989-07-30T04:32:00.000+02:00
420411450935,1971-10-13T01:07:00.000+01:00
420605647738,1993-08-31T05:59:16.000+02:00
420736976452,1999-07-05T02:24:00.000+02:00
420359963699,1993-08-10T04:30:00.000+02:00
420833556237,1995-01-15T02:38:42.000+01:00
420397361107,1972-12-13T02:52:50.000+01:00
420580758128,1993-03-07T00:17:18.000+01:00
420592639534,1974-01-15T09:38:00.000+01:00
420819351950,1989-12-12T03:27:40.000+01:00
420276208717,1986-10-31T00:43:00.000+01:00
420468266403,1979-02-27T01:30:48.000+01:00
420351819149,1972-05-31T10:06:08.000+01:00
420237304358,1999-10-11T01:47:00.000+02:00
420604403763,1970-03-01T07:22:12.000+01:00
420779583518,1995-07-20T03:07:00.000+02:00
420478760377,1993-07-03T01:31:46.000+02:00
420534867509,1998-11-09T03:51:14.000+01:00
420482389529,1978-01-10T02:58:00.000+01:00
420531885207,1979-11-17T11:46:48.000+01:00
420849221129,1992-12-02T03:17:54.000+01:00
420961576444,1982-12-24T06:40:00.000+01:00
420531192227,1998-05-29T02:43:06.000+02:00
420491637775,1998-11-28T11:39:18.000+01:00
420738402875,1979-12-14T08:52:58.000+01:00
420832550113,1994-09-28T08:03:14.000+01:00
420835851675,1984-11-30T04:23:54.000+01:00
420411794343,1986-09-30T11:33:00.000+01:00
420372246797,1997-03-18T10:39:00.000+01:00
420900929613,1986-08-14T09:57:00.000+02:00
420467905917,1983-04-23T11:17:46.000+02:00
420487376156,1989-11-16T07:54:00.000+01:00
420320605768,1993-01-29T05:09:33.000+01:00
420284297330,1975-02-25T10:53:00.000+01:00
420242467600,1977-01-10T11:29:11.000+01:00
420846270323,1975-09-07T11:07:42.000+01:00
420358856867,1986-08-21T03:46:00.000+02:00
420495199145,1974-06-22T02:38:31.000+01:00
420556130746,1972-07-18T04:07:29.000+01:00
420846370450,1984-07-19T08:53:00.000+02:00
420541543714,1996-07-31T09:04:00.000+02:00
420387123692,1991-10-11T10:14:00.000+01:00
420585856961,1999-12-28T11:41:47.000+01:00
420512426118,1993-09-06T09:41:46.000+02:00
420554811471,1981-05-21T05:12:00.000+02:00
420519532927,1979-02-10T02:43:00.000+01:00
420202133559,1996-02-02T11:04:42.000+01:00
420414646371,1996-09-13T06:41:16.000+02:00
420774796368,1979-08-27T08:21:00.000+02:00
420291448783,1975-03-02T08:41:00.000+01:00
420460105750,1998-11-04T11:59:00.000+01:00
420393719829,1991-03-13T08:52:37.000+01:00
420231848951,1990-04-18T09:54:29.000+02:00
420470820923,1974-02-01T08:14:44.000+01:00
420239543429,1998-05-24T00:53:49.000+02:00
420729644572,1992-10-31T04:28:50.000+01:00
420910276131,1971-12-16T01:45:00.000+01:00
420249807111,1980-11-21T10:39:04.000+01:00
420498243786,1979-05-09T02:44:58.000+02:00
420206114651,1997-02-19T07:30:00.000+01:00
420605151379,1991-12-24T06:44:08.000+01:00
420726141947,1994-09-26T07:45:16.000+01:00
420579972327,1985-11-23T09:46:00.000+01:00
420202279726,1972-05-28T05:04:00.000+01:00
420596952783,1989-04-15T09:06:00.000+02:00
420371536358,1985-04-17T08:56:00.000+02:00
420775124429,1987-12-08T00:51:00.000+01:00
420799581998,1989-11-01T07:16:00.000+01:00
420268527849,1996-12-03T04:37:28.000+01:00
420225364311,1987-11-15T03:51:55.000+01:00
420969469109,1976-03-04T08:04:18.000+01:00
420849366963,1991-11-03T09:20:32.000+01:00
420512749432,1983-06-29T05:59:00.000+02:00
420538509688,1986-02-02T02:19:12.000+01:00
420237184302,1970-01-25T01:53:00.000+01:00
